module gitlab.com/cyverse/cacao-common

go 1.23.0

toolchain go1.23.6

require (
	github.com/cloudevents/sdk-go/v2 v2.15.2
	github.com/go-git/go-billy/v5 v5.6.1
	github.com/go-git/go-git/v5 v5.13.1
	github.com/google/uuid v1.6.0
	github.com/mitchellh/mapstructure v1.5.0
	github.com/nats-io/nats.go v1.33.1
	github.com/nats-io/stan.go v0.10.4
	github.com/rs/xid v1.5.0
	github.com/santhosh-tekuri/jsonschema v1.2.4
	github.com/sirupsen/logrus v1.9.3
	github.com/stretchr/testify v1.10.0
	go.mongodb.org/mongo-driver v1.17.2
	golang.org/x/crypto v0.35.0
)

require (
	dario.cat/mergo v1.0.0 // indirect
	github.com/Microsoft/go-winio v0.6.1 // indirect
	github.com/ProtonMail/go-crypto v1.1.3 // indirect
	github.com/cloudflare/circl v1.3.7 // indirect
	github.com/cyphar/filepath-securejoin v0.3.6 // indirect
	github.com/davecgh/go-spew v1.1.1 // indirect
	github.com/emirpasic/gods v1.18.1 // indirect
	github.com/go-git/gcfg v1.5.1-0.20230307220236-3a3c6141e376 // indirect
	github.com/gogo/protobuf v1.3.2 // indirect
	github.com/golang/groupcache v0.0.0-20210331224755-41bb18bfe9da // indirect
	github.com/golang/snappy v0.0.4 // indirect
	github.com/jbenet/go-context v0.0.0-20150711004518-d14ea06fba99 // indirect
	github.com/json-iterator/go v1.1.10 // indirect
	github.com/kevinburke/ssh_config v1.2.0 // indirect
	github.com/klauspost/compress v1.17.7 // indirect
	github.com/modern-go/concurrent v0.0.0-20180228061459-e0a39a4cb421 // indirect
	github.com/modern-go/reflect2 v0.0.0-20180701023420-4b7aa43c6742 // indirect
	github.com/montanaflynn/stats v0.7.1 // indirect
	github.com/nats-io/nats-server/v2 v2.10.12 // indirect
	github.com/nats-io/nats-streaming-server v0.25.6 // indirect
	github.com/nats-io/nkeys v0.4.7 // indirect
	github.com/nats-io/nuid v1.0.1 // indirect
	github.com/pjbgf/sha1cd v0.3.0 // indirect
	github.com/pmezard/go-difflib v1.0.0 // indirect
	github.com/sergi/go-diff v1.3.2-0.20230802210424-5b0b94c5c0d3 // indirect
	github.com/skeema/knownhosts v1.3.0 // indirect
	github.com/stretchr/objx v0.5.2 // indirect
	github.com/xanzy/ssh-agent v0.3.3 // indirect
	github.com/xdg-go/pbkdf2 v1.0.0 // indirect
	github.com/xdg-go/scram v1.1.2 // indirect
	github.com/xdg-go/stringprep v1.0.4 // indirect
	github.com/youmark/pkcs8 v0.0.0-20240726163527-a2c0da244d78 // indirect
	go.uber.org/atomic v1.4.0 // indirect
	go.uber.org/multierr v1.1.0 // indirect
	go.uber.org/zap v1.10.0 // indirect
	golang.org/x/mod v0.17.0 // indirect
	golang.org/x/net v0.33.0 // indirect
	golang.org/x/sync v0.11.0 // indirect
	golang.org/x/sys v0.30.0 // indirect
	golang.org/x/text v0.22.0 // indirect
	golang.org/x/time v0.5.0 // indirect
	golang.org/x/tools v0.21.1-0.20240508182429-e35e4ccd0d2d // indirect
	gopkg.in/warnings.v0 v0.1.2 // indirect
	gopkg.in/yaml.v3 v3.0.1 // indirect
)
